waveform.vcd
$date
     May 30, 2024       13:14:30
$end

$version
 SystemC 2.3.4-Accellera --- May 25 2024 18:03:43
$end

$timescale
     1 ps
$end

$scope module SystemC $end
$var wire    1  aaaaa  clk       $end
$var wire    1  aaaab  out       $end
$var wire    1  aaaac  A1       $end
$var wire    1  aaaad  A2       $end
$upscope $end
$enddefinitions  $end

$comment
All initial values are dumped below at time 0 sec = 0 timescale units.
$end

$dumpvars
1aaaaa
0aaaab
1aaaac
1aaaad
$end

#500000000000
0aaaaa

#1000000000000
1aaaaa
1aaaab

#1500000000000
0aaaaa

#2000000000000
1aaaaa
0aaaac

#2500000000000
0aaaaa

#3000000000000
1aaaaa
0aaaab

#3500000000000
0aaaaa

#4000000000000
1aaaaa
1aaaac
0aaaad

#4500000000000
0aaaaa

#5000000000000
1aaaaa

#5500000000000
0aaaaa

#6000000000000
1aaaaa
0aaaac

#6500000000000
0aaaaa

#7000000000000
1aaaaa

#7500000000000
0aaaaa

#8000000000000
1aaaaa
1aaaac
1aaaad

#8500000000000
0aaaaa

#9000000000000
1aaaaa
1aaaab

#9500000000000
0aaaaa

#10000000000000
1aaaaa
0aaaac

#10500000000000
0aaaaa

#11000000000000
1aaaaa
0aaaab

#11500000000000
0aaaaa

#12000000000000
1aaaaa
1aaaac
0aaaad

